Capstone 1
…
breweries %>% group_by(State) %>% summarise(Total = n()) %>% arrange(Total)

## Warning: package 'bindrcpp' was built under R version 3.4.4

## # A tibble: 51 x 2
##    State Total
##    <chr> <int>
##  1 " DC"     1
##  2 " ND"     1
##  3 " SD"     1
##  4 " WV"     1
##  5 " AR"     2
##  6 " DE"     2
##  7 " MS"     2
##  8 " NV"     2
##  9 " AL"     3
## 10 " KS"     3
## # ... with 41 more rows
…
Question 4

We then computed the median alcohol content and IBU for each state, this should help you get an idea of how strong and how bitter people in different states prefer their beer.

summarydf = merged %>% group_by(State) %>% summarise(MedianAlcoholContent = median(ABV, na.rm=TRUE),
                                         MedianIBU = median(IBU, na.rm=TRUE))

summarydf

## # A tibble: 51 x 3
##    State MedianAlcoholContent MedianIBU
##    <chr>                <dbl>     <dbl>
##  1 " AK"               0.056       46  
##  2 " AL"               0.06        43  
##  3 " AR"               0.052       39  
##  4 " AZ"               0.055       20.5
##  5 " CA"               0.058       42  
##  6 " CO"               0.0605      40  
##  7 " CT"               0.06        29  
##  8 " DC"               0.0625      47.5
##  9 " DE"               0.055       52  
## 10 " FL"               0.057       55  
## # ... with 41 more rows
…
